Satara,65.2515325
Marthandam,42.213817
Kondapalle,53.26459025
Airoli,65.6123682
Arakkonam,0.0
Pleasant Hill,5.218261
Toledo,0.0
Clacton-on-Sea,62.6115235
Karur,22.8043565
Kornwestheim,368.250932
Liverpool,105.7369925
Belapur,98.3061563889
Modinagar,12.070807
Scottsdale,28.472292
Avadi,13.33875175
Abu Road,45.5034364615
Arhera,23.3884906667
Poplar,53.9981404
Phagwara,102.4106005
Bharuch,50.8669605556
Valls,26.146576
Barakpur,35.6342492727
Chippendale,0.0
Hukumpeta,36.5116412222
Bisrakh,77.5863817813
Moorpark,0.306549
Deoband,0.113107
Jind,130.654116778
Gangtok,44.4120928596
Nagapattinam,83.133665
Palampur,94.1079497429
Palladam,74.577983975
Eindhoven,4.9636125
Amalapuram,176.63577875
Madh,20.7181614286
Dammam,459.0882395
Utrecht,342.2823385
Siliguri,69.1871414368
Matunga,88.3820459594
Las Vegas,70.5292462353
Framingham,4.612205
Doncaster,127.024696
Baibalpur,119.700270633
Quincy,114.829177722
Ropar,22.0162184234
Ambala,81.5719735275
Pasadena,109.43319586
Kanchipuram,63.0829349551
Bareilly,117.36053425
Babarpur,86.9814298333
Howrah,88.4934051429
Allahabad,78.0785664825
Anigandlapadu,168.319473
Brighton,24.881104
Tirur,131.669873501
Barwa,184.744375074
Kondotty,74.70914025
Clarks Summit,0.0
Kair,71.89739665
Imphal,40.4457811667
Lavasa,0.0
Shantipur,367.84058
Tondiarpet,0.055216
Dehradun,150.153804529
Oak Ridge,138.1757
Medinipur,137.1411575
Mohan,108.622922833
Montvale,96.255786
Morinda,20.9609562222
Alipur,102.629190804
Mandal,144.375192
Malegaon,114.494802167
Gandevi,43.2877406
Phoenix,8.4961515
Hampstead,178.883931
Bhendsar,46.7496706333
Faridabad,75.5364657678
Hartford,60.122699
Vuyyuru,0.6329115
Palwal,8.006668
Kukatpalli,15.82189475
Kamthi,126.589233333
Chingleput,126.7545375
Dhaka,7.83283466667
Tista Bazar,41.9018246364
Kanchrapara,47.981409
Shrigonda,26.311905
Konnur,89.96573525
Greater Kailash,37.8684734
Duluth,132.394241667
Shahjanpur,167.273397197
Bhandup,72.617625
Rajapalaiyam,30.5930958333
Hadia,59.7022846
Kiliyanur,44.8871565625
Anandnagar,41.042153
Apparaopalem,3.948763
Vempalli,2.16525166667
Kahilipara,98.17570225
Ranaghat,76.017748052
Monterrey,2.932409
Newton Center,0.001231
Gustavsberg,33.840447
Kutiatodu,108.658244
Arlington,3.252274
Dhakuria,35.88613925
Kendraparha,62.9503491667
Kovvur,71.9613111667
Montgomery,10.604286
Ambur,44.5602303333
Moga,62.5536586845
Owings Mills,10.820192
Gudivada,115.564055875
Perumbavoor,36.20547125
Kalyani,424.20135575
Kearny,103.7751564
Mandideep,157.9861174
Barnala,82.1754602857
Chicacole,29.9761697
Camberwell,0.0
Oak Brook,2.699671
Banda,138.480715
Manjeri,21.1772944
Clontarf,0.003176
Bettiah,68.2677166
Nagpur,90.8231867247
Mohali,85.4184844206
Vellore,83.0250345792
Mohala,53.1301447222
Gunadala,169.733171517
Madanapalle,102.7775654
Yarada,36.6732900556
Cairo,5.383533
Durgapur,81.2323000708
Flushing,11.224673
Nangal Township,33.7982424545
Nadiad,103.534560679
Hindupur,447.2936914
Geeta Colony,121.420098
Karnal,93.7443536491
Jogeshwari,69.7874172
Kopar,33.4677025
Rotherham,27.53058
Dadri,27.485795
Angol,65.331574125
Bhaisa,0.0
Iowa City,121.951177
Gondal,95.770225
Bhayavadar,35.1538548
Abusar,108.428604587
Cambridge,165.088309926
Ghodasar,4.84565733333
Nashik,91.9913424598
Baharwal,17.631938
Paradip,167.560079861
Alibag,36.6820984615
Amruthahalli,56.041262
Geebung,41.007259
Bengaluru,84.9907706847
Vanukuru,3.303226
Sivakasi,76.4541881429
Chetput,55.8589756667
Murrysville,40.610049
Gangapur,173.02462275
Faisalabad,6.163576
Udupi,88.6906892717
Nuvem,53.8258173333
Anarwala,110.246965
Kankinara,11.4039335
Madhapur,150.755465833
Malappuram,46.139134775
Kosigi,147.2013293
Brixton,4.299695
Angai,70.38895625
Sirhind,65.8769165
Chicago,82.9048659911
Warangal,146.343428283
Oshkosh,8.628476
Lincolnshire,309.606284343
Manazuru,8.898668
Aquidauana,10.95676
Grand Rapids,1.452584
Porbandar,23.9093816667
Arunachal,219.2379325
Navsari,91.8418498333
Bank,599.033419
Tira Sujanpur,21.8186850703
Jersey City,137.802947545
Azamgarh,118.530596562
Ghusuri,230.756609
Moradabad,112.247215025
Viralimalai,69.7477463571
Sambalpur,282.9768592
Barwas,0.0
Ambelim,46.301557
Wani,175.87388725
Bharatpur,101.622168333
Vengurla,42.1332939231
Copenhagen,59.51124675
Latur,68.274333975
Roorkee,81.693061381
Kiev,1.158991
Miamisburg,456.990481667
Raver,147.518668
Bhopal,85.8284202191
Kiel,134.400631
Rajgarh,22.8528785
Nadakkavu,11.927583
Kumta,47.7720292619
Mysore,101.444793686
Akurdi,44.216765
Chittaurgarh,47.77918025
Araghar,70.9322397816
Kasaragod,200.271994143
Gloucester,21.426609
Chaukhandi,68.606631
Khopoli,198.01777275
Washington,105.222204333
Nagda,85.8608132222
Narsapur,45.3632036
Munnar,37.6775928571
Raikot,193.744607
Sydney,169.475878708
Butler,67.843654
Gurgaon,85.2083404728
Jodhpur,91.7580313272
Mauli,79.4175943333
Chipri,286.6062404
Birmingham Gardens,0.0
Devar Hippargi,112.1921665
Port of Spain,0.0
Dewas,264.936329545
Florham Park,0.922049
San Antonio,81.0939875
Nimaparha,145.790096714
Agolai,58.8590915556
Banga,245.235405
Jhunjhunun,99.6916436667
Cupertino,45.5594823077
Mukkulam,0.0
Hightstown,142.483924
Khandagiri,59.2563578096
Aberdeen,62.585204
Vadodara,77.9122772089
Piscataway,51.0748283542
Vriddhachalam,22.028838
Muscat,194.73568925
Akhara,407.859013
Gonda City,12.6861745
Vasco,43.8640448333
Malad,140.072544106
Laitumkhrah,54.937589
Tokyo,233.540986634
Central District,12.9090871667
Ajjanahalli,0.0
Anaheim,19.166521
Bhuj,143.068033304
Finsbury,8.591291
Hoodi,95.7145819375
Silchar,53.2019455851
Mechanicsburg,53.693771
Cleveland,131.9354042
Bidar,190.408254361
Buldana,76.5031776667
Sibsagar,84.1052442333
Morganton,0.359495
Mahrauli,106.819262
Palashi,33.4861225
Al Hudaydah,0.0
Udaigiri,159.806146
Madikeri,45.3985166667
Epsom,223.7707965
Gudivakalanka,41.0014373333
Gastonia,1060.83195
Jakarta,0.0
Gaya,238.87681625
Upper Norwood,2.703877
Aklimpur,283.609753
Bilaspur,84.0094502857
Mira Road,106.207846731
Franklin Square,36.332598
La Paz,0.0
Rishikesh,28.7528586667
Egmore,53.821616425
Portland,81.365310125
Mothihari,0.0
Espoo,15.5577955
Kakkanad,7.142517
Bastora,117.982477
Thane,84.6659642099
Sonpur,8.949674
Balipur,52.6099456667
Krishnagiri,6.67533
Beas,29.38639
Shenzhen,0.0529553333333
Lalru,23.72381782
Ballwin,24.349711
Shirokane,19.475461
Ferozepore,146.8748465
Sangola,23.0209275625
Dhubri,33.504212
Southborough,106.014330556
Tampa,570.6072418
Menlo Park,74.2705799219
Yanam,54.193463
Sampaloc,11.789374
Heythuysen,653.043286
Ithaca,14.580759
Naperville,206.02462575
Cherakkara,78.5790953333
Ganganagar,31.1212070909
Mahopac,2.594727
Pilani,166.109669556
Woodland Hills,174.775149
Pakala,223.608619
Peoria,62.16213575
Kota,63.7672932838
Mathikere,8.464203
Malabar Hill,4.055077
Madgaon,35.1467151585
Sarwar,23.70794
Cape Town,113.9048355
Pernem,138.5994875
Gotri,16.171921
Amber,166.370463437
Idar,62.8836123333
Surajkund,47.7149368182
Karaparamba,60.1161855714
Essen,822.777174
Dhanbad,287.997633955
Dallas,106.038092702
Fairfield,66.812436
Andi,59.0554955
Milpitas,25.16895
Jogindarnagar,52.7986836667
Barddhaman,63.5716081936
Jorhat,67.2829175556
Palakollu,184.825568286
Pasighat,88.5712011429
Belke,6.41471766667
Bhagar,74.1945944706
Namakkal,54.6151715357
Machelen,10.843202
Benaulim,58.9650435294
Southfield,73.522687
Hong Kong,123.423994474
Leichhardt,27.728847
Parbhani,277.803763
Pleasanton,45.0147975
Kollam,48.9607585667
Beverly Hills,99.180146
Ambikapur,66.8691804167
Hudson,0.0
Raipur,70.9183126746
Dhanori,62.969937859
Cherry Hill,21.941825
Pachora,30.809013
Guntur,105.327916435
Norristown,118.089257
Wilmington,53.407187
Giza,0.0
Melbourne,16.304616
Ambegaon,136.5310465
Park Ridge,13.2711735
Cuddalore,56.5258994474
Akoli,116.1413878
Akola,29.9240689231
Doha,62.1677785625
Clifton,40.5039215455
Jamshedpur,117.243345106
Chanda,105.776045137
Aligarh,100.617300226
Anna Nagar,22.0698775714
Lakhimpur,20.2093076667
Kinshasa,0.0
Jalalpur,80.1491246533
Baharampur,154.049366177
Meerut,94.3256696159
Chennai,82.1318015587
Verona,2.962238
Khatauli,79.2268418889
Ashburn,90.8467750527
Ranipur,153.637849
Bolu,6.023206
Atlanta,107.517636035
Ahmedabad,67.3592915373
Chandur Bazar,88.4264502727
Whitestown,63.949557
Sahibabad,84.534599477
Wadgaon,65.4041531667
Kanpur,88.1251037757
Kali,0.0
Ujjain,84.2246576747
Pulwama,3.07243866667
Achampet,61.9224235152
Mecca,0.0
Bhattarahalli,149.134927667
Manchar,136.7585672
Ehningen,398.017421889
Bansbaria,79.2730248
Raichur,111.962769053
Burlington,30.300453
Midlothian,187.131593
Thimphu,19.332116
Maersta,52.08015
Guangzhou,73.6215170699
The Bronx,24.994938
Kuala Lumpur,67.24336275
Kalinga,403.516674175
Nynaeshamn,17.407704
Odesa,7.383233
Sunnyvale,191.0480548
Ras al-Khaimah,250.915061
Manipala,194.443804286
Vapi,67.5978790201
Gorakhpur,105.036952061
Hatfield,625.0498348
Houilles,550.095397667
Anand,85.0930628489
Malolos,0.293311
Gollamudi,114.065621567
Bhaskola,79.230121
Zheleznodorozhnyy,1.167464
Lansing,19.527398
Akha,436.7623545
Marripalem,62.7908336667
Staines,22.397586
Dibrugarh,63.877855
Kidbrooke,989.138464
Bandel,94.3687668
Dharwad,59.9217266905
Westmont,224.645345333
Orlando,76.9205775
Jhalawar,264.456413333
Mangalore,91.6339340833
Montreal,73.8579251389
Bapatla,125.0597105
Jawalakhel,4.12220633333
Etawah,71.403632
Bhiwani,30.06986675
Lohogaon,13.1459246667
Mandvi,30.10475375
Manapakkam,8.9176331
Herndon,61.25809525
Bijai,62.97553825
Sanawar,1.778806
Changanacheri,38.5161535455
Udaipur,71.2179978696
Alwar,48.3608062105
St Louis,77.76105775
Vasai,92.1950024429
Munich,66.3713395
Mundargi,44.84850625
Carrollton,0.0
Warren Township,219.5095995
Dharamgarh,112.432280595
Kottayam,77.1566466875
Damanhur,0.0
Mississauga,27.021401
Girraween,124.251755
Lufkin,144.58469
Valsad,155.113491
Narayangarh,84.9715863714
Bulandshahr,5.38889585714
Belal,110.508581062
Suntikoppa,83.7686513333
Morvi,112.691763125
Daman,95.199511
McKinney,51.802781
Kunnamkulam,144.909626375
New Kensington,88.21846
Upton,14.010297
Arjunpura,125.711958111
Belona,152.488984
Irving,63.4142508334
Sankarankovil,39.562099
Fatehpur,94.69381
Muzaffarnagar,115.341448818
Irvine,114.38013525
Bararta,87.32858975
Dum Dum,12.9162509
Noida,92.3807670806
Delhi,81.5200726349
Landing,22.345606
Worli,86.8786605952
Sangamner,96.5912228333
Basirhat,11.4617722857
Jalgaon Jamod,72.7668750385
Vandiperiyar,57.502147
Royapuram,51.6437326667
Ahmednagar,84.4217562209
Nanded,16.219458
Webster,20.828563
Kitchener,75.523784
Kilpauk,8.275647
Kalol,81.5486886667
Indrani,63.863264
Agartala,61.0628372727
Redford,149.8359905
Kandhla,10.431627
Mill,120.543110833
Binningen,110.3435715
Ruruganj,225.446172
Charkhi,46.06860675
Nariman Point,83.7798677
Vernon Hills,112.557421
Merewether,0.0
Marakkanam,289.1185165
Dietikon,96.21975
Miami Beach,10.984555
Amroli,60.4418564091
Lucknow,73.3974144926
Dhuri,194.5889132
Sambhal,5.975361
Kulittalai,39.1964326667
Tambaram,345.630185336
Mancherial,13.293809
Gudiyatham,147.3635504
Kashipur,170.638326
Kankauli,33.0272261429
Adelaide,0.724956
Norwalk,8.381871
Himatnagar,45.7443286667
Daxini Society,49.1698384
Chembur,176.764465992
Poranki,58.34008
Pura,151.776812019
Patna,82.1365586505
Puri,256.23970315
Kothaguda,7.683154
Erode,63.0235097622
Balurghat,22.6765518182
Kapasda,110.107664771
Bundi,18.1461125
Almere Stad,147.304771
Chittur,147.040408
Jagadhri,768.0571315
Hvidovre,126.939179
Orlim,3.437723
Hojai,20.3344688462
Jajpur,4.5126155
Bhaisani Islampur,12.3454195
Nileshwar,26.8338605
Falls Church,1.595195
Nanjundapuram,0.686255666667
Concord,302.988265967
Maidenhead,219.030990067
Amaravati,4.2471265
Netrang,57.7663018333
Pallavaram,53.7588933571
Penugonda,298.241927
Yavatmal,93.4834545
Guwahati,83.0046771047
Idukki,67.8639634667
Kanjari,54.6475598571
Anekallu,40.56956175
Rocklin,103.285086
Jaipur,94.9581559766
Parsippany,274.423921694
Philadelphia,224.981721896
Winnipeg,116.498689
Kasba,20.0430446
San Francisco,119.68983025
Torrance,57.65788325
Bandra,75.7212851327
Tuljapur,43.9178286667
Itapema,32.758898
Sholinganallur,49.3586393333
Garha,6.824588
Tyldesley,12.123331
Basdio,0.0
Menomonee Falls,60.353563
Gulbarga,0.0
Chokla,80.71983
Dharampur,54.192471
Arrah,16.2147065
Chandanagar,157.428527771
Amsterdam,99.536778716
Thenali,43.222503
Bodwad,50.5970327857
Unterschleissheim,43.862027
Andipalayam,33.3163787143
Shadnagar,104.234692585
Powai,107.643723
Hull,51.4147233333
Solan,133.493727324
Jagatsinghapur,23.5079105714
Adilabad,38.4313765
Hisar,118.202324808
Jubail,56.886334
Pune,75.824730831
Puthencruz,101.041834
Kanniyakumari,31.4633918571
Lexington,25.89466
Noventa,0.0
Ahulana,65.5130323333
Olean,5.107418
Naihati,44.0800077727
Dona Paula,99.879513
Machhiwara,51.6961789545
Bharu,33.0904613333
Pathanamthitta,79.3476177375
Sardulgarh,12.07579675
Manchester,104.0617514
Dargah,49.6242245556
Gopalpur,77.383301
Tonk,43.1676750909
Terrigal,334.335561
Sangrur,160.083643133
Far Hills,2.649528
Jagti,86.046731875
Kaladi,0.0
Vasant Kunj,173.780346
Dimapur,104.929837762
Korangal,18.2494716
Gopalapatnam,49.876187
Arepalli,460.8138165
Babail,26.9429552222
Balapur,116.428351
Gandhigram,18.528602
Dhahran,221.730974
Lititz,17.638012
Berlin,16.7256028
Leeds,70.295951
Madukkur,0.0
Umm al-Quwain,43.098065
McLean,54.5871805
Tadepallegudem,21.6149925
Bhiwandi,61.7724628848
Mongra,94.7384676875
Arni,55.1352193333
Kadapa,162.823347009
Tirunelveli,53.5107943595
Rahu,90.8346510556
Eden Prairie,25.485536
Jhansi,121.191640333
Varanasi,104.065160855
Bolpur,44.4535455
Delaware,1.136136
Badlapur,77.1652548628
Bedradka,56.992531
Darang,123.181734143
Kokrajhar,95.9309085682
Silvassa,8.0840705
Littleton,172.113163389
Vijayawada,97.3566318943
Gujranwala,0.0
Begusarai,35.4461764
Bendorejo,14.999817
Raebareli,56.00270225
Sharjah,113.178380318
Hapur,221.062176
Brussels,205.073286
Ghaziabad,87.6719782017
Fazilka,23.202686
Saint Joseph,3.31007
Shimoga,63.774220625
Round Lake,8.17334933333
Fatehgarh,148.102077333
Alsip,0.0
Valencia,83.735244
Konnagar,250.912731533
Shah Alam,2.809178
Warrenville,50.937707
Tiruchi,69.3709151054
Malakanagiri,219.561737591
Ojai,71.16653
Permatang Pauh,9.086426
Andhalgaon,33.5175961364
Plano,284.2693865
Panchgani,42.805957
Beaverton,82.59188
Kanazawa,0.0
Dedna,64.4161754556
Karad,50.64699715
Kansas City,274.55855925
Panna,100.224119313
Matsuyama,6.078763
Lagos,0.127894
Babnapur,97.9742628
Milwaukee,4.6414105
North Fort Myers,0.0
Oslo,32.0073214
Provo,60.0002723
Athwa,785.943434
Tolichowki,35.950474
Siuri,40.5878408472
Sterling,206.960113
Kaithal,71.1763686429
Alamanda,47.5928515625
Tajpar,117.081104
Solapur,63.3243317
Nagaur,35.17954825
Kundgol,66.0283626667
Bellary,35.1033685
Nuremberg,573.07887875
Saratoga,7.3551706
Secunderabad,76.5567360488
Hoshiarpur,38.7026224267
Pathankot,81.1011090517
Byahatti,22.5565334444
Nizamabad,103.114398652
Duisburg,8.371022
London,175.159106606
Rajpura,27.8728011852
Sitrah,0.0
Auckland,0.339824
Walnut,0.0
Kolkata,80.7233442946
Coimbatore,70.7410757263
Egra,82.2540082353
Ashok Nagar,44.9836317538
San Jose,113.546664182
Nugegoda,84.776141
Balicha,63.5796040909
Borgaon,9.245911
Hyderabad,93.3902270236
Moline,19.0360075
Jaripatka,0.0
Bukkapuram,21.0581456
Barodiya,189.799919
Ratlam,103.071472806
Khammam,101.840113333
Ballerup Municipality,405.339989667
Mahwah,37.393353
Bazpur,41.8851858333
Bishnupur,198.293243
Fort Lauderdale,383.602942
Murbad,207.929363619
Lavera Kalan,74.4010669167
Penfield,151.223763
Aliso Viejo,48.95249
West Chicago,13.5500105
Haldwani,105.299006821
Nandyal,127.283972379
Englewood,157.388255648
Anjar,0.0
Katoya,62.3688523333
Clichy,91.96652
Karaikudi,86.1645094666
Srivilliputhur,1.46741666667
Ballia,13.320938
Vastral,57.2529367143
Gouda,3.784743
Lancaster,442.8738985
Saint-Francois-de-l'Ile-d'Orleans,33.054961
Banji,85.851345875
Springfield,3.692438
Asoli,86.97795225
Dhayari,50.0541916667
Burnley,129.150979
Bayad,13.451169
Ballur,51.8694395
Swadlincote,35.1116523333
Islamabad,34.1911716
Raja Annamalaipuram,58.0745418571
Ikeja,0.0
Mandya,13.2335653333
Padampur,184.105565
Phillaur,67.03155425
Omaha,66.6749956
Chhaprauli,185.048229321
Jallandhar,28.73238425
Plymouth,146.559935875
New Haven,0.0
Hoest,5.93040918182
Chirala,20.697509
Haryana,136.333178184
Swindon,36.842102
Edison,23.004066
Leander,0.0
Funsi,21.010067
Wayne,48.1179245
Itanagar,35.9184588571
Vantaa,110.628872
Guntakal,31.150027
Rowlett,0.078107
Fremont,90.0360090932
Bhimbar,17.785996
Baragaon,32.853847
Assagao,249.229497
Khar West,11.5781611667
Luton,33.431928
Mangattiri,252.0020565
Angul,79.59753636
Bathinda,66.2034888333
Hamirpur,51.2632127
Nayagarh,29.13023075
Saugor,90.1287749722
Hartlepool,131.446644
Mahbubnagar,148.960772
Champ de tir Winona,0.0
Lane Cove,227.211495
Ranchi,105.8789879
Denver,19.4124182
Amritsar,112.419905851
Ho Chi Minh City,0.0
Gujrat,10.2994615
Nanjangud,88.4397835
Murarrie,8.250145
Swarupnagar,163.426250667
Batala,27.172757
Zamora,4.019865
Overland Park,412.069473
Godalming,5.737296
Shahdol,179.3297865
Ellore,40.5844519595
Newburyport,144.420060667
Ganapathivattam,8.04804933333
Ainada,201.114809143
Ichalkaranji,112.347111273
Clark,32.226825
Zurich,247.168855667
Northampton,258.213049875
Thoothukudi,95.96472492
Chlef,5.544127
Istanbul,121.747147833
Hanamkonda,5.0728042
Richmond,6.617578
Providence,134.066710375
Louisville,71.9462791667
Columbus,88.1198596042
Nanganallur,101.9515434
Bhawanipatna,21.656935
Borivali,178.184507222
Landhaura,9.990954
Cork,55.8714995
Barkhedi,0.2505715
Alegaon,138.358867
Emu Heights,0.0
Mulund East,53.1288434
Kenchanahalli,113.603597818
Chittoor,77.59961964
Bankura,195.147223174
Balasore,142.583619552
Orai,81.0176545556
Agol,107.209471333
Chhindwara,58.416249
Toulouse,4.117093
Faizpur,24.6830691
Bury,11.078843
Goregaon,88.7568055
Kozhikode,60.4561198131
Owatonna,83.380994
Manly,11.3995093333
Maidstone,10.468605
Kajang,2.915812
Oklahoma City,122.8017805
Crows Nest,0.0
Haridwar,93.2151757586
Paterson,180.320473
Biella,16.885311
Gangoh,37.2393186667
Glasgow,8.03552333333
Virar,91.980802049
Kampung Baharu Nilai,489.780343
Gaighata,0.0
Gurdaspur,6.8402365
Hanover,0.2101995
Bagrian,30.176682
Anegundi,48.17564425
Dayal Bagh,92.2187991944
Serampore,531.2870834
Docklands,9.14628125
Palghar,37.5012431429
Bongaigaon,217.6918679
Kungsbacka,0.6950295
Kukshi,81.4082281667
Bhimavaram,120.78202987
Collaroy,0.0
Jasdan,55.7101181667
Badbar,123.846947417
Kalamboli,195.424896
Bhiwadi,11.561514625
Mitcham,108.360088
Ambewadi,2.13872
Bagthala,82.7856979
Shillong,163.990975664
Dharapuram,54.6933436
Pimple,88.699712375
Kallam,105.523622227
Bangkok,54.2690601
Marco,121.11124
Bad Homburg,38.698442
Madinat `Isa,0.237463
Badli,133.636094437
Madhoganj,87.8338766731
Tiruvannamalai,64.97492325
Hamburg,0.0
Wilsonville,2.211129
Leesburg,59.741729
Bar,35.7299631429
Parvatsar,46.044707
Charlotte,152.258689325
Bandar,0.0
Karimnagar,89.4468406417
Chandannagar,122.52420013
Monmouth Junction,15.778742
Niederkassel,22.075087
Papanasam,0.0
Andheri,157.4951755
Hasanpur,23.2816634
Skegness,0.0
Dongri,18.325116
Dadhalia,103.6623905
Hailakandi,69.48798075
Reading,354.517703333
Coonoor,24.5014146364
Sardarshahr,85.7972992281
Panskura,138.093235571
Kolapakkam,81.8072903966
Attur,142.172269071
Panjim,56.3310393333
Everett,36.9709945
Chandpur,3.4739515
Kalyanpuri,6.607904
Ryde,8.003885
Barhari,25.6600414545
Kuwait City,35.3629968889
Notting Hill Gate,106.431448
Respaldiza,9.512132
Mansarovar,59.8834718571
Faridkot,41.046752
Kharkiv,0.0
Una,0.79047125
Chhajarsi,299.648724933
Redwood City,38.6334185758
Petaling Jaya,28.036131
Tanuku,103.793936276
Dundahera,78.3529392
Boston,166.9829415
Erukkancheri,96.1834852381
Contai,28.83948475
Panvel,0.16501
Asansol,204.105306591
Akbarpur,79.9263006607
Mayiladuthurai,79.205331
Birdha,69.7873745
Mahendragarh,4.248187
Parel,113.42423325
Nagercoil,91.5269396905
Colva,106.881921367
Aldhal,45.576018375
Kothanur,12.4375405
Caranzalem,202.4811834
Anchal,41.3816614375
Jharsugra,119.885329044
Anchar,86.3976738
Langat,0.0
Moncton,13.347376
Aurangabad,74.8727018739
Nainital,48.0313268
Ammapalem,64.4080449286
Machilipatnam,15.7535884
Ajman,159.7569235
Durg,65.2537371
Ottawa,29.878217
Aghara,59.3386084
Betim,102.927401571
Ambajogai,29.499016
Puducherry,73.7926810526
Madurai,89.2288183013
Uttarpara,56.0574960714
Hubli,145.230425192
Maple Valley,0.0
Adaun,3.202073
Jamnagar,98.7056077696
Murshidabad,15.3179516667
Ernakulam,83.7050382727
Tumsar,37.3589463333
Saiha,128.907074
Mumbai,94.9269068175
Chagallu,630.963130375
Wardha,384.113907231
Hazelwood,105.86135
Alur,44.265124625
Odessa,5.793121
Bharari,55.8495757826
Rohini,64.6827385
Jalna,166.291044333
Blue Bell,37.9539253
Bhubaneswar,90.0448728961
Karaikal,39.7159683333
Coventry,72.186543
Burnaby,0.0
Amroha,99.2279530147
Madanpur,162.402874
Wareemba,0.0
Manassas,85.9963842381
University Place,0.0
Dhaipai,170.5941535
Mukerian,24.4989533
Nanjing,0.338201333333
Dombivali,12.4043199
Fallanden,165.420581
Ahwa,388.329773667
Nalgonda,115.491496833
Johannesburg,87.9475135
Sialkot,6.30869
Belgharia,74.305195
Akkayyapalem,10.414872
Tamenglong,82.5167045455
Aroli,174.62733725
Malvan,8.545463375
Abu Dhabi,72.10930905
Brahmapur,83.2982192667
Arsapur,7.643113
Ann Arbor,28.294364
Danda,126.9090205
Srinagar,86.2211923125
Shanghai,3.763868
Broomfield,14.555672
Ratnagiri,77.74927375
Dohad,170.5366895
Hugli,92.6905040833
Dublin,195.707344333
Oakville,23.708941
Kakinada,100.765498159
Anuppampattu,7.5700095
Miraj,162.907432687
Sangli,93.530770875
Athlone,0.0
Mardan,12.527671
Maharanipeta,42.9571296
Salt Lake City,143.8144535
Itasca,36.3663155
Adyar,42.67966875
Jaisingpur,74.487545
Delmar,0.0
Behror,88.3750206
Rochester,18.388505
Visnagar,12.083182
Pipar,8.467621
Arvada,11.640731
Amberpet,66.6643136667
Cheyenne,14.429412
Slough,0.516355
Isfahan,5.591522
Ludhiana,84.7314560368
Ariyalur,93.9678402084
Soni,653.036299
Annavaram,188.8540152
Curchorem,41.483717
Athagarh,13.4433574375
Carapur,76.0204603333
Dhamara,58.7622599167
Mettur,54.6237242
Palus,2.251299
Round Rock,39.808482
Fatehabad,77.673593125
Irla,78.723315
Beckton,0.0
Thanjavur,33.3491129143
Aizawl,65.3684706042
Chiswick,0.0
Wai,62.093632
Closepet,13.5056645
Bhilwara,111.689363829
Punalur,111.2150942
Schaumburg,216.1481015
Burari,112.229215706
Santa Ana,1483.426835
Nandambakkam,185.88535
Jeypore,108.368987138
Kayseri,16.682992
Gandhidham,97.0812994904
North Bergen,112.254387
Bagdhar,61.363094
Princeton,57.886131
Maida Vale,79.933657
Ottappalam,13.8740305
Sunam,218.099423667
Hassan,189.235335828
Puruliya,13.7015454
Patiala,78.2477538936
Darmstadt,24.980019
Bargarh,33.3491181579
Northbrook,329.169612556
Salem,60.0144750325
Kadi,0.5821436
Gajuwaka,0.0
Chiba,52.158124
Kepong,0.0414835
Mathak,278.817777625
Wuhan,5.878234
Malekpur,103.1854215
Ambuwala,97.2868197333
Waukesha,54.365895
Hackney,51.151481
Kuzhithurai,947.418718
Akoda,106.888816333
Ballarpur,0.0
Ghatkopar,54.9375833
Glendale,41.937733
Finspang,10.630583
Kumbalam,7.63804
Chettipalaiyam,23.5903065
Kolar,333.18133075
Darbhanga,46.97334496
Thenkasi,322.268058
Ghazipur,117.286955786
Roanoke,17.43027
Albany,933.967005
Bhavani,116.382636059
Woolwich,0.0
Handa,0.0
Bibiganj,79.2049303333
Chitradurga,60.066620125
Devon,65.747208
Teaneck,0.0
Chiplun,102.9243565
Jeddah,240.706347625
New Southgate,0.0
Milton Keynes,131.150152
Mount Abu,44.0766679524
Diu,7.927028
Waltham,225.042495
Alexandria,0.0
Cincinnati,52.2058285
Ooty,12.378815
Tirumala - Tirupati,141.790644278
Banwasa,33.6656147143
Maharagama,2.36131
Jadcherla,5.717882
Model Town,2.280188
Nagar,91.6580636297
Erragadda,108.746638133
Nagla,105.6081055
Anantpura,29.159118
Pittsburgh,46.23604
Moscow,9.492982
Amravati,59.7711817143
Kurukshetra,106.807059833
Surandai,0.0
Lynchburg,1047.111143
Karachi,234.425390667
Unnao,256.1984115
Barton,187.8835895
Raiganj,52.614534389
Cuttack,78.4507542277
Chandkheda,108.97092075
Raurkela,99.6827939814
Agara,93.9235278971
Kolhapur,84.8871079304
New Delhi,92.7052077556
Square,516.022416
Bari,47.7115867857
Gadag,29.3834105
Agra,57.9180431361
Sewri,135.5061595
Rancho Cucamonga,6.1948
Urayasu,1.414049
Aharwan,9.80433433333
Manama,102.469848
Tiruchchendur,0.0
Angadipram,58.4334134286
Scarborough,0.0
Racine,67.039809
Banaswadi,101.6918596
Mavelikara,51.7638503333
Kumaram,2.254537
Port Chester,60.759008
Abohar,138.941065231
Nanchang,0.0
Boca Raton,153.688934
Turaiyur,89.7051873333
Devadi,340.379305
Belgaum,67.1598753333
Bhadohi,207.329052647
Adrian,5.098079
Austin,100.939863193
Beijing,96.7626708718
Salto,9.93906
Annaba,8.694923
Bahadurgarh,136.04903228
Lawrenceville,139.801066
Hospet,1.68126433333
Goleta,0.502053
Barasat,11.6297596667
Bhadreswar,93.9330824459
Bodinayakkanur,131.758550417
Altamont,5.269658
Chandigarh,79.7176391209
Culver City,0.0
Mau,122.7681525
Sikar,41.0279761364
Universal City,553.1071755
Ankleshwar,107.239742833
Almora,48.208625
Medak,317.026886286
Khamaria,116.557992417
Karol Bagh,5.1695405
Derby,8.922815
Itarsi,72.6287093333
Hadapsar,66.0969515
Bromley,0.0
Covina,37.21471
Draper,38.516857
Tiruvalla,60.9868325833
Kapurthala Town,29.386566
Vadapalani,97.40367
Stamford,386.065387152
Secaucus,256.1052425
Yamunanagar,52.21308725
Nidadavole,52.0601474
Amboli,33.0346175
Jammu,89.7408565473
Mathura,34.9891329808
Kochi,70.7135225857
Khandwa,2.792302
Muktsar,168.061333316
Panchkula,64.521260875
Korattur,2.98971125
Port Blair,38.1109348947
Redfern,820.495815
Chesterfield,77.0567015833
Ramnagar,52.9025679
Tiruchengode,73.833068625
Chinnipadu,30.8580542
Brisbane,97.054194
Agaram,38.1637064643
Seattle,195.451594064
Sonipat,76.6720221303
Loni,87.99875525
Sitapur,111.599667
Karjat,34.02094825
Ateli Mandi,403.017747
Khategaon,48.1636063333
Oceanside,229.252293
Forest Hills,77.808603
Bhikhnapur,36.212243
Auroville,64.50025675
San Diego,25.0025126667
Nimta,11.2172396667
Kayamkulam,202.2265846
Nurpur,55.764056
Chakdaha,34.819171
Bankipore,102.024771639
Borgerhout,166.171727
Dehu,437.999183594
Chalisgaon,212.985870357
Baranagar,33.162348119
Perambalur,69.468699
Redmond,237.366453896
Karunanidhi Nagar,52.88136375
Kathua,31.50488125
Amloh,75.22350996
Cotonou,1.879358
Jubilee Hills,85.000636
Dharmaram,150.129242667
Pala,55.0368920312
Amgaon,17.2914241538
Tiruppur,59.4674234012
Greenwich,67.8221094
Olivebridge,0.003469
Samastipur,57.4174196154
Peddapuram,74.2420279231
Junagadh,60.2253695
Bankner,36.2978855833
Badabar,49.35051275
Bardoli,52.6235332222
Mountain View,81.7646464082
Mhow,70.4301584615
Baraut,58.2958639429
Pauri,0.0
Rewari,104.380485632
Nellore,66.3370539628
West Mambalam,24.2717393333
Birmingham,19.527378
Halifax,140.164652
Parramatta,4.277651
Jhajjar,212.487544
New Friends Colony,0.0
Korba,25.247379
Edgerton,0.0
Nabadwip,31.3112785
Kurnool,89.3604130303
Barcem,18.2799093333
Mandaluyong City,51.745214
Dighori,35.0976193409
Kharagpur,129.858731415
Barsat,124.3681665
Frankfurt am Main,67.2348861875
Manali,0.0
Arjunganj,206.19928375
Bagwara,15.221348
Indore,75.0962068064
Villupuram,88.16964885
Alakode,1.59024866667
Thumbur,0.131125
Nagore,59.9832533684
Cedar Rapids,16.9815480769
Ballabgarh,39.143413
Mangalagiri,116.38371475
Sirsa,118.639752152
Schenectady,22.5063985
Wilson,129.54601375
Dunbar,14.530226
Haripad,10.8280503333
Warwick,13.29093
La Plata,18.308017
Kannadiparamba,120.2198616
Aliabad,49.431437413
Samana,14.24331325
Khanna,106.545383344
Westborough,35.1418168333
Catania,0.0
Barmana,70.4498865
New Albany,3.4878345
Dubai,123.194128969
Siruseri,301.779738607
Middletown,35.81044275
Nagarbhavi,0.0
Topeka,0.033294
Gori,34.068
Glenmore Park,0.0
Maldah,79.4570878611
Katy,70.298412
Turavur,0.0
Kalyan,96.9041999857
Kharghar,81.8202402372
Montpelier,126.120499
Indirapuram,28.5795691
Sargodha,0.0
Gandhinagar,79.9518823992
Baripada,3.25324
Tenosique de Pino Suarez,0.0
Minneapolis,73.2864476
Kumbh,10.505302
Amarpur,21.4322407115
Kalpeni,6.38288072727
Aundh,103.640708672
Ruddah,0.018291
Uran,109.657785167
Kangar,64.0185040814
Ambheti,109.026631214
Hangzhou,6.89667833333
Afgooye,0.0
Buffalo,1.29848025
Colaba,71.272259
Mormugao,193.528543118
Bhilai,57.305669191
Zushi,948.386228
Madrid,0.017024
Mexico City,29.191635
Raigarh,196.441931222
Chunchura,94.1844322115
Bethesda,170.133678
Tlemcen,0.0
Ambattur,85.2361283095
Nandura Buzurg,0.0
Badarpur,83.1123348097
Flower Mound,156.412887
Boardman,82.7332344102
Helsinki,2.4366
Dhone,63.819192125
Carteret,100.858585
Rishra,62.5589493929
Moelln,4.502144
Churu,49.4446943333
Uliyakovil,5.13929
Pudukkottai,81.1898591406
Rajahmundry,85.8011493
Vizianagaram,131.37561225
New York,190.928478758
Jagdalpur,18.8687983333
Lima,6.395723
Andhiyarkhoh,49.5118495714
Banur,204.652462
Newport Beach,165.990479
Electronics City,46.88421375
Khandela,0.0
Detroit,0.0
St Helens,0.060316
Raritan,92.339957
Palakkad,42.6197027681
Matteson,93.2358216875
Prague,0.0
Tellicherry,39.82256125
Bhagalpur,132.992067667
Boisar,12.155732
Patan,34.2876154168
Baroda,28.9390667742
Seremban,2.418142
Kalan,171.167778
Paris,130.266728071
Berkeley Heights,0.0
Hosur,94.7401809189
Cantt,0.0
Jalandhar,97.4903261706
Narnaul,82.6262418889
Ilford,4.79251466667
Voinjama,3.675916
Ajmer,66.0576510726
Buffalo Grove,169.926325
Pollachi,0.0
Sanwer,42.7131579783
Barwala,47.79682
Gwalior,79.2465430497
Cementon,45.337415
Bikaner,125.926991505
Rohtak,29.6595142381
Mesice,1.167961
Kelambakkam,35.60810575
Thiruvarur,40.8786060625
Kampong Cham,39.8170835
Tutzing,239.795324
Port Orchard,0.729068
Mundka,72.013502875
Alandur,119.666661636
Krishnanagar,84.2226994722
Ramanathapuram,109.811058156
Hridaypur,80.4349674211
Market Rasen,1.377092
Barchawali,116.425161846
Chantilly,599.842843
Jalpaiguri,166.667563714
Ahmadpur,56.8387549318
Drummoyne,172.826587
Adra,11.092399
Cumballa Hill,14.2993745
Los Angeles,98.4199845019
Chapar,72.3671307216
Dharmapuri,91.9967415
Vallabh Vidyanagar,19.5160885
Razampeta,40.7173062222
Bodhan,152.978223806
Rawatpur,120.85362
Godhra,393.252877
Kathmandu,33.9427929091
Pretoria,70.031909
Darjeeling,17.20119
Vyara,71.9984445
Mira Loma,28.0406535
Deccan Gymkhana,41.5425215517
Borivali West,24.9233961111
Tarn Taran,21.9592875
Tacoma,57.9324341
Chittaranjan,22.5117724545
Cerritos,100.606602
Santa Clara,259.900925625
Hanoi,22.4686366667
Kasganj,35.1713243333
Cirebon,0.0
Turin,15.41966
Seohara,71.2568408571
Malleshwaram,129.061125
Brooklyn,75.369785
Mansfield,39.80696
Trondheim,149.999535
Al Ain,11.7151975
Toronto,132.144752042
Saint Paul,63.9045638333
Chinchpokli,27.30719075
Wellington,0.0223316666667
New Farm,2.357971
Livingston,4.464647
Richardson,60.223563
Thalwil,54.935915
Bhandara,106.755777204
Abhangapur,7.038656
Nagamangala,15.29426
Bami,31.4884214444
Somerville,59.356282
Mahim,41.9605435
Southwark,102.3302155
Nohar,51.9122361842
Kakrola,26.3011878571
Koraput,77.678515
Lowell,0.0
Burla,70.98825825
Kongsberg,6.668284
Huntsville,86.6529125
Grayslake,46.187939
Bokaro Steel City,31.2111069474
Buenos Aires,0.0
Bear,95.269964
Lviv,0.0
Villa Nueva,0.0
Miami,158.24859995
San Ramon,114.98959
Dorado,0.0
Behala,57.4172466875
Potts Point,0.0
Kumbakonam,121.6332171
Bijapur,146.8127682
Dusseldorf,8.34512166667
Gaborone,22.189977
Udhampur,24.9287806667
Saharanpur,309.303408222
Mitchell,5.080464
Anai,88.5927931429
Houston,173.36200063
Thiruvananthapuram,65.2344869696
Walldorf,137.463589333
Colombo,112.560541
Chapra,13.51856575
Khurda,56.159178
Hodal,212.628342
Thaltej,80.0066655
Bloomington,230.650173267
Tezpur,99.3229318627
Bhawan,81.4749119737
Bellevue,13.0664563333
Tudiyalur,67.5143203333
Dearborn,94.130102
Bhongir,245.483021
Bhawar,30.7205053333
Aluva,57.138841
Sultanpur,22.145
Theni,18.821654
Sopara,34.010122125
Collierville,1520.632529
Ponda,53.957142025
Kodungallur,32.6043203333
Christchurch,40.93078
Dindigul,183.548413222
Surendranagar,61.0984243947
Mettupalayam,119.579104
Alagapuram,6.044607
Durham,6.507013
Kondapur,39.3505346667
Visakhapatnam,82.9931360714
Ballygunge,64.25472016
Westwood,347.7046645
Gladesville,292.1807095
Lahore,11.589318
Gainesville,7.2031
Guarulhos,0.0
Kovvuru,87.1075569231
Chandauli,122.852033
Koyambedu,693.098583
Mandi,102.491952759
Chendamangalam,0.0
Rajkot,126.753700737
Roseland,46.4057115
Singapore,100.693732718
Nabha,14.6314001429
Amarwasi,69.602897
Ciudad del Carmen,17.01578
Bihar Sharif,97.5321057643
Anantapur,63.8587041341
Mooresville,508.502359
Morrisville,94.8452976667
Point Cook,61.846756
Alappuzha,69.9153939235
Chester,931.756868
Puttur,35.7307501667
Newington,0.908014
Dharamsala,1.163299
Sattur,59.6701103333
Orang,30.0175950833
Oroville,5.105123
Huntington Beach,17.269004
Lusaka,10.183614
Haveri,69.0901655385
Basildon,0.0
Dausa,72.8760153333
Calgary,3.033059
Shimla,67.3066744333
Lalitpur,75.2809166176
Adamwal,49.7112881667
Vandavasi,173.74380875
Balu,32.9439134
Rocky Hill,16.8126746667
Godhar,212.629285
Ulhasnagar,73.6742004309
Bagdogra,61.9326706375
Panipat,60.9088085938
Lake Forest,82.1940415
Okemos,5.552933
North Chicago,57.840127
Dergaon,61.0854545
Akhepura,77.412074
Bucharest,77.02196705
Allowal,116.926896159
Ongole,92.3755819646
Bommanahalli,100.716403167
Benton Harbor,81.5336153333
Badshahpur,150.666115955
Nathupur,383.55681475
Bhavnagar,66.1889147273
Sehore,130.857793
Cold Spring Harbor,70.2698655
Dhenkanal,161.0897185
Thrissur,62.7862150777
Banjara Hills,17.5186386667
Tempe,166.887664333
Somers,144.9016364
Jabalpur,104.127927233
Krishnapuram,39.150099
Bartlesville,2.973121
Jhargram,82.0604235
Jacksonville,145.511642667
Kannur,38.2056718421
Mahesana,588.174149
Saharsa,64.4193285
Bhusaval,58.1514036852
Guindy,136.434200296
Enfield Town,173.884871333
Nerul,18.580465
Belra,83.5282054375
Kalayat,19.8495876667
Ambarnath,8.737355
Dover,23.899355
Riyadh,30.5393529444
Saidabad,66.2427290652
Thodupuzha,95.8640713333
Dee Why,0.197858333333
Jaunpur,204.280651
Stockholm,57.512891
